# 3ds Max Wavefront OBJ Exporter v0.97b - (c)2007 guruware
# File Created: 21.11.2018 21:28:44

#
# object Sphere001
#

v  0.00000 50.00000 -0.00000
v  -0.00000 49.03926 -9.75452
v  -1.90301 49.03926 -9.56709
v  -3.73289 49.03926 -9.01200
v  -5.41932 49.03926 -8.11058
v  -6.89748 49.03926 -6.89748
v  -8.11058 49.03926 -5.41932
v  -9.01200 49.03926 -3.73289
v  -9.56709 49.03926 -1.90301
v  -9.75452 49.03926 0.00000
v  -9.56709 49.03926 1.90302
v  -9.01200 49.03926 3.73290
v  -8.11058 49.03926 5.41932
v  -6.89748 49.03926 6.89749
v  -5.41931 49.03926 8.11059
v  -3.73288 49.03926 9.01200
v  -1.90300 49.03926 9.56709
v  0.00001 49.03926 9.75452
v  1.90302 49.03926 9.56708
v  3.73290 49.03926 9.01199
v  5.41933 49.03926 8.11058
v  6.89749 49.03926 6.89748
v  8.11059 49.03926 5.41931
v  9.01200 49.03926 3.73288
v  9.56709 49.03926 1.90300
v  9.75452 49.03926 -0.00002
v  9.56708 49.03926 -1.90303
v  9.01199 49.03926 -3.73291
v  8.11057 49.03926 -5.41933
v  6.89747 49.03926 -6.89750
v  5.41930 49.03926 -8.11059
v  3.73287 49.03926 -9.01201
v  1.90299 49.03926 -9.56709
v  -3.73289 46.19397 -18.76651
v  -0.00000 46.19397 -19.13417
v  -7.32233 46.19397 -17.67767
v  -10.63038 46.19397 -15.90948
v  -13.52990 46.19397 -13.52990
v  -15.90948 46.19397 -10.63038
v  -17.67767 46.19397 -7.32233
v  -18.76652 46.19397 -3.73289
v  -19.13417 46.19397 0.00001
v  -18.76651 46.19397 3.73290
v  -17.67767 46.19397 7.32234
v  -15.90948 46.19397 10.63039
v  -13.52989 46.19397 13.52991
v  -10.63037 46.19397 15.90949
v  -7.32232 46.19397 17.67768
v  -3.73288 46.19397 18.76652
v  0.00002 46.19397 19.13417
v  3.73291 46.19397 18.76651
v  7.32235 46.19397 17.67766
v  10.63040 46.19397 15.90947
v  13.52992 46.19397 13.52989
v  15.90950 46.19397 10.63035
v  17.67768 46.19397 7.32231
v  18.76652 46.19397 3.73286
v  19.13417 46.19397 -0.00003
v  18.76651 46.19397 -3.73292
v  17.67766 46.19397 -7.32236
v  15.90946 46.19397 -10.63041
v  13.52988 46.19397 -13.52993
v  10.63035 46.19397 -15.90950
v  7.32229 46.19397 -17.67768
v  3.73285 46.19397 -18.76652
v  -5.41932 41.57348 -27.24476
v  -0.00000 41.57348 -27.77851
v  -10.63038 41.57348 -25.66400
v  -15.43291 41.57348 -23.09699
v  -19.64237 41.57348 -19.64237
v  -23.09699 41.57348 -15.43291
v  -25.66400 41.57348 -10.63037
v  -27.24476 41.57348 -5.41931
v  -27.77851 41.57348 0.00001
v  -27.24475 41.57348 5.41933
v  -25.66399 41.57348 10.63039
v  -23.09698 41.57348 15.43293
v  -19.64236 41.57348 19.64239
v  -15.43290 41.57348 23.09700
v  -10.63036 41.57348 25.66401
v  -5.41930 41.57348 27.24476
v  0.00003 41.57348 27.77851
v  5.41935 41.57348 27.24475
v  10.63041 41.57348 25.66399
v  15.43294 41.57348 23.09697
v  19.64240 41.57348 19.64235
v  23.09701 41.57348 15.43288
v  25.66401 41.57348 10.63034
v  27.24476 41.57348 5.41928
v  27.77851 41.57348 -0.00004
v  27.24475 41.57348 -5.41936
v  25.66398 41.57348 -10.63042
v  23.09696 41.57348 -15.43296
v  19.64234 41.57348 -19.64241
v  15.43287 41.57348 -23.09702
v  10.63032 41.57348 -25.66402
v  5.41926 41.57348 -27.24477
v  -6.89748 35.35534 -34.67599
v  -0.00000 35.35534 -35.35534
v  -13.52990 35.35534 -32.66407
v  -19.64237 35.35534 -29.39689
v  -25.00000 35.35534 -25.00000
v  -29.39689 35.35534 -19.64237
v  -32.66408 35.35534 -13.52990
v  -34.67600 35.35534 -6.89748
v  -35.35534 35.35534 0.00001
v  -34.67599 35.35534 6.89750
v  -32.66407 35.35534 13.52992
v  -29.39688 35.35534 19.64239
v  -24.99998 35.35534 25.00002
v  -19.64235 35.35534 29.39690
v  -13.52988 35.35534 32.66409
v  -6.89745 35.35534 34.67600
v  0.00003 35.35534 35.35534
v  6.89752 35.35534 34.67599
v  13.52994 35.35534 32.66406
v  19.64241 35.35534 29.39687
v  25.00003 35.35534 24.99997
v  29.39692 35.35534 19.64233
v  32.66409 35.35534 13.52985
v  34.67601 35.35534 6.89743
v  35.35534 35.35534 -0.00006
v  34.67598 35.35534 -6.89754
v  32.66405 35.35534 -13.52996
v  29.39685 35.35534 -19.64243
v  24.99995 35.35534 -25.00005
v  19.64231 35.35534 -29.39693
v  13.52983 35.35534 -32.66410
v  6.89741 35.35534 -34.67601
v  -8.11058 27.77851 -40.77466
v  -0.00000 27.77851 -41.57348
v  -15.90948 27.77851 -38.40889
v  -23.09699 27.77851 -34.56709
v  -29.39689 27.77851 -29.39689
v  -34.56709 27.77851 -23.09699
v  -38.40889 27.77851 -15.90948
v  -40.77466 27.77851 -8.11057
v  -41.57348 27.77851 0.00001
v  -40.77465 27.77851 8.11060
v  -38.40888 27.77851 15.90950
v  -34.56707 27.77851 23.09701
v  -29.39687 27.77851 29.39691
v  -23.09697 27.77851 34.56710
v  -15.90945 27.77851 38.40891
v  -8.11055 27.77851 40.77467
v  0.00004 27.77851 41.57348
v  8.11063 27.77851 40.77465
v  15.90953 27.77851 38.40887
v  23.09703 27.77851 34.56706
v  29.39693 27.77851 29.39685
v  34.56712 27.77851 23.09694
v  38.40891 27.77851 15.90943
v  40.77467 27.77851 8.11052
v  41.57348 27.77851 -0.00007
v  40.77465 27.77851 -8.11065
v  38.40886 27.77851 -15.90955
v  34.56704 27.77851 -23.09705
v  29.39683 27.77851 -29.39695
v  23.09692 27.77851 -34.56713
v  15.90940 27.77851 -38.40892
v  8.11050 27.77851 -40.77468
v  -9.01200 19.13417 -45.30637
v  -0.00000 19.13417 -46.19397
v  -17.67767 19.13417 -42.67767
v  -25.66399 19.13417 -38.40889
v  -32.66407 19.13417 -32.66407
v  -38.40889 19.13417 -25.66399
v  -42.67767 19.13417 -17.67766
v  -45.30637 19.13417 -9.01199
v  -46.19397 19.13417 0.00002
v  -45.30637 19.13417 9.01202
v  -42.67766 19.13417 17.67769
v  -38.40887 19.13417 25.66402
v  -32.66405 19.13417 32.66409
v  -25.66397 19.13417 38.40891
v  -17.67763 19.13417 42.67768
v  -9.01196 19.13417 45.30638
v  0.00004 19.13417 46.19397
v  9.01204 19.13417 45.30636
v  17.67772 19.13417 42.67765
v  25.66404 19.13417 38.40886
v  32.66411 19.13417 32.66403
v  38.40892 19.13417 25.66394
v  42.67769 19.13417 17.67761
v  45.30638 19.13417 9.01193
v  46.19397 19.13417 -0.00007
v  45.30635 19.13417 -9.01207
v  42.67764 19.13417 -17.67774
v  38.40884 19.13417 -25.66407
v  32.66401 19.13417 -32.66413
v  25.66392 19.13417 -38.40894
v  17.67758 19.13417 -42.67770
v  9.01190 19.13417 -45.30639
v  -9.56709 9.75452 -48.09698
v  -0.00000 9.75452 -49.03926
v  -18.76651 9.75452 -45.30637
v  -27.24475 9.75452 -40.77466
v  -34.67599 9.75452 -34.67599
v  -40.77466 9.75452 -27.24475
v  -45.30637 9.75452 -18.76650
v  -48.09698 9.75452 -9.56707
v  -49.03926 9.75452 0.00002
v  -48.09698 9.75452 9.56711
v  -45.30636 9.75452 18.76653
v  -40.77464 9.75452 27.24478
v  -34.67597 9.75452 34.67602
v  -27.24472 9.75452 40.77467
v  -18.76648 9.75452 45.30639
v  -9.56704 9.75452 48.09699
v  0.00005 9.75452 49.03926
v  9.56714 9.75452 48.09697
v  18.76656 9.75452 45.30635
v  27.24480 9.75452 40.77462
v  34.67604 9.75452 34.67595
v  40.77469 9.75452 27.24470
v  45.30640 9.75452 18.76645
v  48.09700 9.75452 9.56701
v  49.03926 9.75452 -0.00008
v  48.09697 9.75452 -9.56717
v  45.30634 9.75452 -18.76659
v  40.77460 9.75452 -27.24483
v  34.67593 9.75452 -34.67606
v  27.24467 9.75452 -40.77471
v  18.76642 9.75452 -45.30641
v  9.56698 9.75452 -48.09701
v  -9.75452 0.00000 -49.03926
v  -0.00000 0.00000 -50.00000
v  -19.13417 0.00000 -46.19398
v  -27.77851 0.00000 -41.57348
v  -35.35534 0.00000 -35.35534
v  -41.57348 0.00000 -27.77851
v  -46.19398 0.00000 -19.13416
v  -49.03926 0.00000 -9.75450
v  -50.00000 0.00000 0.00002
v  -49.03926 0.00000 9.75454
v  -46.19397 0.00000 19.13419
v  -41.57346 0.00000 27.77854
v  -35.35532 0.00000 35.35536
v  -27.77848 0.00000 41.57350
v  -19.13413 0.00000 46.19399
v  -9.75447 0.00000 49.03927
v  0.00005 0.00000 50.00000
v  9.75457 0.00000 49.03925
v  19.13422 0.00000 46.19395
v  27.77856 0.00000 41.57345
v  35.35538 0.00000 35.35529
v  41.57352 0.00000 27.77846
v  46.19400 0.00000 19.13410
v  49.03928 0.00000 9.75444
v  50.00000 0.00000 -0.00008
v  49.03925 0.00000 -9.75460
v  46.19394 0.00000 -19.13425
v  41.57343 0.00000 -27.77859
v  35.35527 0.00000 -35.35541
v  27.77843 0.00000 -41.57354
v  19.13408 0.00000 -46.19402
v  9.75441 0.00000 -49.03929
v  -9.56709 -9.75451 -48.09699
v  -0.00000 -9.75451 -49.03926
v  -18.76651 -9.75451 -45.30637
v  -27.24475 -9.75451 -40.77466
v  -34.67599 -9.75451 -34.67599
v  -40.77466 -9.75451 -27.24475
v  -45.30638 -9.75451 -18.76651
v  -48.09699 -9.75451 -9.56707
v  -49.03926 -9.75451 0.00002
v  -48.09698 -9.75451 9.56711
v  -45.30636 -9.75451 18.76653
v  -40.77464 -9.75451 27.24478
v  -34.67598 -9.75451 34.67602
v  -27.24473 -9.75451 40.77468
v  -18.76648 -9.75451 45.30639
v  -9.56704 -9.75451 48.09700
v  0.00005 -9.75451 49.03926
v  9.56714 -9.75451 48.09698
v  18.76657 -9.75451 45.30635
v  27.24481 -9.75451 40.77462
v  34.67604 -9.75451 34.67595
v  40.77470 -9.75451 27.24470
v  45.30640 -9.75451 18.76645
v  48.09700 -9.75451 9.56701
v  49.03926 -9.75451 -0.00008
v  48.09697 -9.75451 -9.56717
v  45.30634 -9.75451 -18.76659
v  40.77461 -9.75451 -27.24483
v  34.67593 -9.75451 -34.67606
v  27.24467 -9.75451 -40.77471
v  18.76642 -9.75451 -45.30641
v  9.56698 -9.75451 -48.09701
v  -9.01200 -19.13416 -45.30637
v  -0.00000 -19.13416 -46.19398
v  -17.67767 -19.13416 -42.67767
v  -25.66400 -19.13416 -38.40889
v  -32.66407 -19.13416 -32.66407
v  -38.40889 -19.13416 -25.66400
v  -42.67767 -19.13416 -17.67766
v  -45.30637 -19.13416 -9.01199
v  -46.19398 -19.13416 0.00002
v  -45.30637 -19.13416 9.01202
v  -42.67766 -19.13416 17.67769
v  -38.40887 -19.13416 25.66402
v  -32.66405 -19.13416 32.66410
v  -25.66397 -19.13416 38.40891
v  -17.67764 -19.13416 42.67768
v  -9.01196 -19.13416 45.30638
v  0.00004 -19.13416 46.19398
v  9.01205 -19.13416 45.30636
v  17.67772 -19.13416 42.67765
v  25.66405 -19.13416 38.40886
v  32.66412 -19.13416 32.66403
v  38.40892 -19.13416 25.66395
v  42.67770 -19.13416 17.67761
v  45.30639 -19.13416 9.01193
v  46.19398 -19.13416 -0.00007
v  45.30636 -19.13416 -9.01207
v  42.67764 -19.13416 -17.67775
v  38.40884 -19.13416 -25.66407
v  32.66401 -19.13416 -32.66414
v  25.66392 -19.13416 -38.40894
v  17.67758 -19.13416 -42.67771
v  9.01190 -19.13416 -45.30639
v  -8.11058 -27.77851 -40.77466
v  -0.00000 -27.77851 -41.57348
v  -15.90948 -27.77851 -38.40889
v  -23.09699 -27.77851 -34.56709
v  -29.39689 -27.77851 -29.39689
v  -34.56709 -27.77851 -23.09699
v  -38.40889 -27.77851 -15.90948
v  -40.77466 -27.77851 -8.11057
v  -41.57348 -27.77851 0.00001
v  -40.77465 -27.77851 8.11060
v  -38.40888 -27.77851 15.90950
v  -34.56707 -27.77851 23.09701
v  -29.39687 -27.77851 29.39691
v  -23.09697 -27.77851 34.56710
v  -15.90945 -27.77851 38.40891
v  -8.11055 -27.77851 40.77467
v  0.00004 -27.77851 41.57348
v  8.11063 -27.77851 40.77465
v  15.90953 -27.77851 38.40887
v  23.09703 -27.77851 34.56706
v  29.39693 -27.77851 29.39685
v  34.56712 -27.77851 23.09694
v  38.40891 -27.77851 15.90943
v  40.77467 -27.77851 8.11052
v  41.57348 -27.77851 -0.00007
v  40.77465 -27.77851 -8.11065
v  38.40886 -27.77851 -15.90955
v  34.56704 -27.77851 -23.09705
v  29.39683 -27.77851 -29.39695
v  23.09692 -27.77851 -34.56713
v  15.90940 -27.77851 -38.40892
v  8.11050 -27.77851 -40.77468
v  -6.89748 -35.35534 -34.67599
v  -0.00000 -35.35534 -35.35534
v  -13.52990 -35.35534 -32.66407
v  -19.64237 -35.35534 -29.39689
v  -25.00000 -35.35534 -25.00000
v  -29.39689 -35.35534 -19.64237
v  -32.66408 -35.35534 -13.52990
v  -34.67600 -35.35534 -6.89748
v  -35.35534 -35.35534 0.00001
v  -34.67599 -35.35534 6.89750
v  -32.66407 -35.35534 13.52992
v  -29.39688 -35.35534 19.64239
v  -24.99998 -35.35534 25.00002
v  -19.64235 -35.35534 29.39690
v  -13.52988 -35.35534 32.66409
v  -6.89745 -35.35534 34.67600
v  0.00003 -35.35534 35.35534
v  6.89752 -35.35534 34.67599
v  13.52994 -35.35534 32.66406
v  19.64241 -35.35534 29.39687
v  25.00003 -35.35534 24.99997
v  29.39692 -35.35534 19.64233
v  32.66409 -35.35534 13.52985
v  34.67601 -35.35534 6.89743
v  35.35534 -35.35534 -0.00006
v  34.67598 -35.35534 -6.89754
v  32.66405 -35.35534 -13.52996
v  29.39685 -35.35534 -19.64243
v  24.99995 -35.35534 -25.00005
v  19.64231 -35.35534 -29.39693
v  13.52983 -35.35534 -32.66410
v  6.89741 -35.35534 -34.67601
v  -5.41932 -41.57348 -27.24475
v  -0.00000 -41.57348 -27.77851
v  -10.63037 -41.57348 -25.66400
v  -15.43291 -41.57348 -23.09699
v  -19.64237 -41.57348 -19.64237
v  -23.09699 -41.57348 -15.43291
v  -25.66400 -41.57348 -10.63037
v  -27.24475 -41.57348 -5.41931
v  -27.77851 -41.57348 0.00001
v  -27.24475 -41.57348 5.41933
v  -25.66399 -41.57348 10.63039
v  -23.09698 -41.57348 15.43293
v  -19.64236 -41.57348 19.64239
v  -15.43290 -41.57348 23.09700
v  -10.63035 -41.57348 25.66401
v  -5.41929 -41.57348 27.24476
v  0.00003 -41.57348 27.77851
v  5.41935 -41.57348 27.24475
v  10.63040 -41.57348 25.66398
v  15.43294 -41.57348 23.09697
v  19.64240 -41.57348 19.64235
v  23.09701 -41.57348 15.43288
v  25.66401 -41.57348 10.63034
v  27.24476 -41.57348 5.41928
v  27.77851 -41.57348 -0.00004
v  27.24474 -41.57348 -5.41936
v  25.66398 -41.57348 -10.63042
v  23.09696 -41.57348 -15.43296
v  19.64233 -41.57348 -19.64241
v  15.43287 -41.57348 -23.09702
v  10.63032 -41.57348 -25.66402
v  5.41926 -41.57348 -27.24477
v  -3.73289 -46.19398 -18.76650
v  -0.00000 -46.19398 -19.13416
v  -7.32233 -46.19398 -17.67766
v  -10.63037 -46.19398 -15.90948
v  -13.52990 -46.19398 -13.52990
v  -15.90948 -46.19398 -10.63037
v  -17.67766 -46.19398 -7.32232
v  -18.76651 -46.19398 -3.73289
v  -19.13416 -46.19398 0.00001
v  -18.76650 -46.19398 3.73290
v  -17.67766 -46.19398 7.32234
v  -15.90947 -46.19398 10.63038
v  -13.52989 -46.19398 13.52991
v  -10.63036 -46.19398 15.90948
v  -7.32231 -46.19398 17.67767
v  -3.73287 -46.19398 18.76651
v  0.00002 -46.19398 19.13416
v  3.73291 -46.19398 18.76650
v  7.32235 -46.19398 17.67765
v  10.63039 -46.19398 15.90946
v  13.52991 -46.19398 13.52988
v  15.90949 -46.19398 10.63035
v  17.67767 -46.19398 7.32230
v  18.76651 -46.19398 3.73286
v  19.13416 -46.19398 -0.00003
v  18.76650 -46.19398 -3.73292
v  17.67765 -46.19398 -7.32236
v  15.90946 -46.19398 -10.63040
v  13.52987 -46.19398 -13.52992
v  10.63034 -46.19398 -15.90950
v  7.32229 -46.19398 -17.67768
v  3.73285 -46.19398 -18.76651
v  -1.90301 -49.03926 -9.56707
v  -0.00000 -49.03926 -9.75450
v  -3.73289 -49.03926 -9.01199
v  -5.41931 -49.03926 -8.11057
v  -6.89748 -49.03926 -6.89748
v  -8.11057 -49.03926 -5.41931
v  -9.01199 -49.03926 -3.73289
v  -9.56707 -49.03926 -1.90301
v  -9.75450 -49.03926 0.00000
v  -9.56707 -49.03926 1.90301
v  -9.01198 -49.03926 3.73289
v  -8.11057 -49.03926 5.41932
v  -6.89747 -49.03926 6.89748
v  -5.41931 -49.03926 8.11058
v  -3.73288 -49.03926 9.01199
v  -1.90300 -49.03926 9.56708
v  0.00001 -49.03926 9.75450
v  1.90302 -49.03926 9.56707
v  3.73290 -49.03926 9.01198
v  5.41932 -49.03926 8.11057
v  6.89748 -49.03926 6.89747
v  8.11058 -49.03926 5.41930
v  9.01199 -49.03926 3.73287
v  9.56708 -49.03926 1.90299
v  9.75450 -49.03926 -0.00002
v  9.56707 -49.03926 -1.90303
v  9.01198 -49.03926 -3.73290
v  8.11056 -49.03926 -5.41933
v  6.89746 -49.03926 -6.89749
v  5.41930 -49.03926 -8.11058
v  3.73287 -49.03926 -9.01199
v  1.90299 -49.03926 -9.56708
v  0.00000 -50.00000 -0.00000
# 482 vertices

vn -0.00000 1.00000 -0.00000
vn -0.00000 0.97960 -0.20097
vn -0.03921 0.97960 -0.19711
vn -0.07691 0.97960 -0.18567
vn -0.11165 0.97960 -0.16710
vn -0.14211 0.97960 -0.14211
vn -0.16710 0.97960 -0.11165
vn -0.18567 0.97960 -0.07691
vn -0.19711 0.97960 -0.03921
vn -0.20097 0.97960 0.00000
vn -0.19711 0.97960 0.03921
vn -0.18567 0.97960 0.07691
vn -0.16710 0.97960 0.11165
vn -0.14211 0.97960 0.14211
vn -0.11165 0.97960 0.16710
vn -0.07691 0.97960 0.18567
vn -0.03921 0.97960 0.19711
vn 0.00000 0.97960 0.20097
vn 0.03921 0.97960 0.19711
vn 0.07691 0.97960 0.18567
vn 0.11165 0.97960 0.16710
vn 0.14211 0.97960 0.14211
vn 0.16710 0.97960 0.11165
vn 0.18567 0.97960 0.07691
vn 0.19711 0.97960 0.03921
vn 0.20097 0.97960 -0.00000
vn 0.19711 0.97960 -0.03921
vn 0.18567 0.97960 -0.07691
vn 0.16710 0.97960 -0.11165
vn 0.14211 0.97960 -0.14211
vn 0.11165 0.97960 -0.16710
vn 0.07691 0.97960 -0.18567
vn 0.03921 0.97960 -0.19711
vn -0.07567 0.92171 -0.38043
vn -0.00000 0.92171 -0.38789
vn -0.14844 0.92171 -0.35836
vn -0.21550 0.92171 -0.32252
vn -0.27428 0.92171 -0.27428
vn -0.32252 0.92171 -0.21550
vn -0.35836 0.92171 -0.14844
vn -0.38043 0.92171 -0.07567
vn -0.38789 0.92171 0.00000
vn -0.38043 0.92171 0.07567
vn -0.35836 0.92171 0.14844
vn -0.32252 0.92171 0.21550
vn -0.27428 0.92171 0.27428
vn -0.21550 0.92171 0.32252
vn -0.14844 0.92171 0.35836
vn -0.07567 0.92171 0.38043
vn 0.00000 0.92171 0.38789
vn 0.07567 0.92171 0.38043
vn 0.14844 0.92171 0.35836
vn 0.21550 0.92171 0.32252
vn 0.27428 0.92171 0.27428
vn 0.32252 0.92171 0.21550
vn 0.35836 0.92171 0.14844
vn 0.38043 0.92171 0.07567
vn 0.38789 0.92171 -0.00000
vn 0.38043 0.92171 -0.07567
vn 0.35836 0.92171 -0.14844
vn 0.32252 0.92171 -0.21550
vn 0.27428 0.92171 -0.27428
vn 0.21550 0.92171 -0.32252
vn 0.14844 0.92171 -0.35836
vn 0.07567 0.92171 -0.38043
vn -0.10921 0.82864 -0.54902
vn -0.00000 0.82864 -0.55977
vn -0.21422 0.82864 -0.51716
vn -0.31099 0.82864 -0.46544
vn -0.39582 0.82864 -0.39582
vn -0.46544 0.82864 -0.31099
vn -0.51716 0.82864 -0.21422
vn -0.54902 0.82864 -0.10921
vn -0.55977 0.82864 0.00000
vn -0.54902 0.82864 0.10921
vn -0.51716 0.82864 0.21422
vn -0.46544 0.82864 0.31099
vn -0.39582 0.82864 0.39582
vn -0.31099 0.82864 0.46544
vn -0.21422 0.82864 0.51716
vn -0.10921 0.82864 0.54902
vn 0.00000 0.82864 0.55978
vn 0.10921 0.82864 0.54902
vn 0.21422 0.82864 0.51716
vn 0.31099 0.82864 0.46544
vn 0.39582 0.82864 0.39582
vn 0.46544 0.82864 0.31099
vn 0.51716 0.82864 0.21422
vn 0.54902 0.82864 0.10921
vn 0.55977 0.82864 -0.00000
vn 0.54902 0.82864 -0.10921
vn 0.51716 0.82864 -0.21422
vn 0.46544 0.82864 -0.31100
vn 0.39582 0.82864 -0.39582
vn 0.31099 0.82864 -0.46544
vn 0.21422 0.82864 -0.51717
vn 0.10921 0.82864 -0.54902
vn -0.13854 0.70406 -0.69650
vn -0.00000 0.70406 -0.71014
vn -0.27176 0.70406 -0.65609
vn -0.39453 0.70406 -0.59046
vn -0.50215 0.70406 -0.50215
vn -0.59046 0.70406 -0.39453
vn -0.65609 0.70406 -0.27176
vn -0.69650 0.70406 -0.13854
vn -0.71014 0.70406 0.00000
vn -0.69650 0.70406 0.13854
vn -0.65609 0.70406 0.27176
vn -0.59046 0.70406 0.39453
vn -0.50215 0.70406 0.50215
vn -0.39453 0.70406 0.59046
vn -0.27176 0.70406 0.65609
vn -0.13854 0.70406 0.69650
vn 0.00000 0.70406 0.71014
vn 0.13854 0.70406 0.69650
vn 0.27176 0.70406 0.65608
vn 0.39453 0.70406 0.59046
vn 0.50215 0.70406 0.50215
vn 0.59046 0.70406 0.39453
vn 0.65609 0.70406 0.27176
vn 0.69650 0.70406 0.13854
vn 0.71014 0.70406 -0.00000
vn 0.69650 0.70406 -0.13854
vn 0.65608 0.70406 -0.27176
vn 0.59046 0.70406 -0.39453
vn 0.50214 0.70406 -0.50215
vn 0.39453 0.70406 -0.59046
vn 0.27176 0.70406 -0.65609
vn 0.13854 0.70406 -0.69650
vn -0.16258 0.55276 -0.81733
vn -0.00000 0.55276 -0.83334
vn -0.31891 0.55276 -0.76991
vn -0.46298 0.55276 -0.69290
vn -0.58926 0.55276 -0.58926
vn -0.69290 0.55276 -0.46298
vn -0.76991 0.55276 -0.31891
vn -0.81733 0.55276 -0.16258
vn -0.83334 0.55276 0.00000
vn -0.81733 0.55276 0.16258
vn -0.76991 0.55276 0.31891
vn -0.69290 0.55276 0.46298
vn -0.58926 0.55276 0.58926
vn -0.46298 0.55276 0.69290
vn -0.31890 0.55276 0.76991
vn -0.16258 0.55276 0.81733
vn 0.00000 0.55276 0.83334
vn 0.16258 0.55276 0.81733
vn 0.31891 0.55276 0.76991
vn 0.46298 0.55276 0.69290
vn 0.58926 0.55276 0.58926
vn 0.69290 0.55276 0.46298
vn 0.76991 0.55276 0.31890
vn 0.81733 0.55276 0.16258
vn 0.83334 0.55276 -0.00000
vn 0.81733 0.55276 -0.16258
vn 0.76990 0.55276 -0.31891
vn 0.69290 0.55276 -0.46298
vn 0.58926 0.55276 -0.58926
vn 0.46298 0.55276 -0.69290
vn 0.31890 0.55276 -0.76991
vn 0.16258 0.55276 -0.81733
vn -0.18041 0.38054 -0.90700
vn -0.00000 0.38054 -0.92477
vn -0.35389 0.38054 -0.85437
vn -0.51377 0.38054 -0.76891
vn -0.65391 0.38054 -0.65391
vn -0.76891 0.38054 -0.51377
vn -0.85437 0.38054 -0.35389
vn -0.90700 0.38054 -0.18041
vn -0.92477 0.38054 0.00000
vn -0.90700 0.38054 0.18041
vn -0.85437 0.38054 0.35389
vn -0.76891 0.38054 0.51377
vn -0.65391 0.38054 0.65391
vn -0.51377 0.38054 0.76891
vn -0.35389 0.38054 0.85437
vn -0.18041 0.38054 0.90700
vn 0.00000 0.38054 0.92477
vn 0.18041 0.38054 0.90700
vn 0.35389 0.38054 0.85437
vn 0.51377 0.38054 0.76891
vn 0.65391 0.38054 0.65391
vn 0.76892 0.38054 0.51377
vn 0.85437 0.38054 0.35389
vn 0.90700 0.38054 0.18041
vn 0.92477 0.38054 -0.00000
vn 0.90700 0.38054 -0.18041
vn 0.85437 0.38054 -0.35389
vn 0.76891 0.38054 -0.51377
vn 0.65391 0.38054 -0.65391
vn 0.51377 0.38054 -0.76892
vn 0.35389 0.38054 -0.85437
vn 0.18041 0.38054 -0.90700
vn -0.19139 0.19393 -0.96217
vn -0.00000 0.19393 -0.98102
vn -0.37542 0.19393 -0.90634
vn -0.54502 0.19393 -0.81568
vn -0.69368 0.19393 -0.69368
vn -0.81568 0.19393 -0.54502
vn -0.90634 0.19393 -0.37542
vn -0.96217 0.19393 -0.19139
vn -0.98102 0.19393 0.00000
vn -0.96217 0.19393 0.19139
vn -0.90634 0.19393 0.37542
vn -0.81568 0.19393 0.54502
vn -0.69368 0.19393 0.69368
vn -0.54502 0.19393 0.81568
vn -0.37542 0.19393 0.90634
vn -0.19139 0.19393 0.96217
vn 0.00000 0.19393 0.98102
vn 0.19139 0.19393 0.96217
vn 0.37542 0.19393 0.90634
vn 0.54502 0.19393 0.81568
vn 0.69368 0.19393 0.69368
vn 0.81569 0.19393 0.54502
vn 0.90634 0.19393 0.37542
vn 0.96217 0.19393 0.19139
vn 0.98102 0.19393 -0.00000
vn 0.96217 0.19393 -0.19139
vn 0.90634 0.19393 -0.37542
vn 0.81568 0.19393 -0.54502
vn 0.69368 0.19393 -0.69368
vn 0.54502 0.19393 -0.81569
vn 0.37542 0.19393 -0.90634
vn 0.19139 0.19393 -0.96217
vn -0.19509 0.00000 -0.98079
vn -0.00000 0.00000 -1.00000
vn -0.38268 0.00000 -0.92388
vn -0.55557 0.00000 -0.83147
vn -0.70711 0.00000 -0.70711
vn -0.83147 0.00000 -0.55557
vn -0.92388 0.00000 -0.38268
vn -0.98079 0.00000 -0.19509
vn -1.00000 0.00000 0.00000
vn -0.98079 0.00000 0.19509
vn -0.92388 0.00000 0.38268
vn -0.83147 0.00000 0.55557
vn -0.70711 0.00000 0.70711
vn -0.55557 0.00000 0.83147
vn -0.38268 0.00000 0.92388
vn -0.19509 0.00000 0.98079
vn 0.00000 0.00000 1.00000
vn 0.19509 0.00000 0.98079
vn 0.38268 0.00000 0.92388
vn 0.55557 0.00000 0.83147
vn 0.70711 0.00000 0.70711
vn 0.83147 0.00000 0.55557
vn 0.92388 0.00000 0.38268
vn 0.98079 0.00000 0.19509
vn 1.00000 0.00000 -0.00000
vn 0.98078 0.00000 -0.19509
vn 0.92388 0.00000 -0.38269
vn 0.83147 0.00000 -0.55557
vn 0.70711 0.00000 -0.70711
vn 0.55557 0.00000 -0.83147
vn 0.38268 0.00000 -0.92388
vn 0.19509 0.00000 -0.98079
vn -0.19139 -0.19393 -0.96217
vn -0.00000 -0.19393 -0.98102
vn -0.37542 -0.19393 -0.90634
vn -0.54502 -0.19393 -0.81568
vn -0.69368 -0.19393 -0.69368
vn -0.81568 -0.19393 -0.54502
vn -0.90634 -0.19393 -0.37542
vn -0.96217 -0.19393 -0.19139
vn -0.98102 -0.19393 0.00000
vn -0.96217 -0.19393 0.19139
vn -0.90634 -0.19393 0.37542
vn -0.81568 -0.19393 0.54502
vn -0.69368 -0.19393 0.69368
vn -0.54502 -0.19393 0.81568
vn -0.37542 -0.19393 0.90634
vn -0.19139 -0.19393 0.96217
vn 0.00000 -0.19393 0.98102
vn 0.19139 -0.19393 0.96217
vn 0.37542 -0.19393 0.90634
vn 0.54502 -0.19393 0.81568
vn 0.69368 -0.19393 0.69368
vn 0.81569 -0.19393 0.54502
vn 0.90634 -0.19393 0.37542
vn 0.96217 -0.19393 0.19139
vn 0.98102 -0.19393 -0.00000
vn 0.96217 -0.19393 -0.19139
vn 0.90634 -0.19393 -0.37542
vn 0.81568 -0.19393 -0.54502
vn 0.69368 -0.19393 -0.69368
vn 0.54502 -0.19393 -0.81569
vn 0.37542 -0.19393 -0.90634
vn 0.19139 -0.19393 -0.96217
vn -0.18041 -0.38054 -0.90700
vn -0.00000 -0.38054 -0.92477
vn -0.35389 -0.38054 -0.85437
vn -0.51377 -0.38054 -0.76891
vn -0.65391 -0.38054 -0.65391
vn -0.76891 -0.38054 -0.51377
vn -0.85437 -0.38054 -0.35389
vn -0.90700 -0.38054 -0.18041
vn -0.92477 -0.38054 0.00000
vn -0.90700 -0.38054 0.18041
vn -0.85437 -0.38054 0.35389
vn -0.76891 -0.38054 0.51377
vn -0.65391 -0.38054 0.65391
vn -0.51377 -0.38054 0.76891
vn -0.35389 -0.38054 0.85437
vn -0.18041 -0.38054 0.90700
vn 0.00000 -0.38054 0.92477
vn 0.18041 -0.38054 0.90700
vn 0.35389 -0.38054 0.85437
vn 0.51377 -0.38054 0.76891
vn 0.65391 -0.38054 0.65391
vn 0.76892 -0.38054 0.51377
vn 0.85437 -0.38054 0.35389
vn 0.90700 -0.38054 0.18041
vn 0.92477 -0.38054 -0.00000
vn 0.90700 -0.38054 -0.18041
vn 0.85437 -0.38054 -0.35389
vn 0.76891 -0.38054 -0.51377
vn 0.65391 -0.38054 -0.65391
vn 0.51377 -0.38054 -0.76892
vn 0.35389 -0.38054 -0.85437
vn 0.18041 -0.38054 -0.90700
vn -0.16258 -0.55276 -0.81733
vn -0.00000 -0.55276 -0.83334
vn -0.31891 -0.55276 -0.76991
vn -0.46298 -0.55276 -0.69290
vn -0.58926 -0.55276 -0.58926
vn -0.69290 -0.55276 -0.46298
vn -0.76991 -0.55276 -0.31891
vn -0.81733 -0.55276 -0.16258
vn -0.83334 -0.55276 0.00000
vn -0.81733 -0.55276 0.16258
vn -0.76991 -0.55276 0.31891
vn -0.69290 -0.55276 0.46298
vn -0.58926 -0.55276 0.58926
vn -0.46298 -0.55276 0.69290
vn -0.31890 -0.55276 0.76991
vn -0.16258 -0.55276 0.81733
vn 0.00000 -0.55276 0.83334
vn 0.16258 -0.55276 0.81733
vn 0.31891 -0.55276 0.76991
vn 0.46298 -0.55276 0.69290
vn 0.58926 -0.55276 0.58926
vn 0.69290 -0.55276 0.46298
vn 0.76991 -0.55276 0.31890
vn 0.81733 -0.55276 0.16258
vn 0.83334 -0.55276 -0.00000
vn 0.81733 -0.55276 -0.16258
vn 0.76990 -0.55276 -0.31891
vn 0.69290 -0.55276 -0.46298
vn 0.58926 -0.55276 -0.58926
vn 0.46298 -0.55276 -0.69290
vn 0.31890 -0.55276 -0.76991
vn 0.16258 -0.55276 -0.81733
vn -0.13854 -0.70406 -0.69650
vn -0.00000 -0.70406 -0.71014
vn -0.27176 -0.70406 -0.65609
vn -0.39453 -0.70406 -0.59046
vn -0.50215 -0.70406 -0.50215
vn -0.59046 -0.70406 -0.39453
vn -0.65609 -0.70406 -0.27176
vn -0.69650 -0.70406 -0.13854
vn -0.71014 -0.70406 0.00000
vn -0.69650 -0.70406 0.13854
vn -0.65609 -0.70406 0.27176
vn -0.59046 -0.70406 0.39453
vn -0.50215 -0.70406 0.50215
vn -0.39453 -0.70406 0.59046
vn -0.27176 -0.70406 0.65609
vn -0.13854 -0.70406 0.69650
vn 0.00000 -0.70406 0.71014
vn 0.13854 -0.70406 0.69650
vn 0.27176 -0.70406 0.65608
vn 0.39453 -0.70406 0.59046
vn 0.50215 -0.70406 0.50215
vn 0.59046 -0.70406 0.39453
vn 0.65609 -0.70406 0.27176
vn 0.69650 -0.70406 0.13854
vn 0.71014 -0.70406 -0.00000
vn 0.69650 -0.70406 -0.13854
vn 0.65608 -0.70406 -0.27176
vn 0.59046 -0.70406 -0.39453
vn 0.50214 -0.70406 -0.50215
vn 0.39453 -0.70406 -0.59046
vn 0.27176 -0.70406 -0.65609
vn 0.13854 -0.70406 -0.69650
vn -0.10921 -0.82864 -0.54902
vn -0.00000 -0.82864 -0.55978
vn -0.21422 -0.82864 -0.51716
vn -0.31099 -0.82864 -0.46544
vn -0.39582 -0.82864 -0.39582
vn -0.46544 -0.82864 -0.31099
vn -0.51716 -0.82864 -0.21422
vn -0.54902 -0.82864 -0.10921
vn -0.55977 -0.82864 0.00000
vn -0.54902 -0.82864 0.10921
vn -0.51716 -0.82864 0.21422
vn -0.46544 -0.82864 0.31099
vn -0.39582 -0.82864 0.39582
vn -0.31099 -0.82864 0.46544
vn -0.21422 -0.82864 0.51716
vn -0.10921 -0.82864 0.54902
vn 0.00000 -0.82864 0.55978
vn 0.10921 -0.82864 0.54902
vn 0.21422 -0.82864 0.51716
vn 0.31099 -0.82864 0.46544
vn 0.39582 -0.82864 0.39582
vn 0.46544 -0.82864 0.31099
vn 0.51717 -0.82864 0.21422
vn 0.54902 -0.82864 0.10921
vn 0.55977 -0.82864 -0.00000
vn 0.54902 -0.82864 -0.10921
vn 0.51716 -0.82864 -0.21422
vn 0.46544 -0.82864 -0.31100
vn 0.39582 -0.82864 -0.39582
vn 0.31099 -0.82864 -0.46544
vn 0.21422 -0.82864 -0.51717
vn 0.10921 -0.82864 -0.54902
vn -0.07567 -0.92171 -0.38043
vn -0.00000 -0.92171 -0.38789
vn -0.14844 -0.92171 -0.35836
vn -0.21550 -0.92171 -0.32252
vn -0.27428 -0.92171 -0.27428
vn -0.32252 -0.92171 -0.21550
vn -0.35836 -0.92171 -0.14844
vn -0.38043 -0.92171 -0.07567
vn -0.38789 -0.92171 0.00000
vn -0.38043 -0.92171 0.07567
vn -0.35836 -0.92171 0.14844
vn -0.32252 -0.92171 0.21550
vn -0.27428 -0.92171 0.27428
vn -0.21550 -0.92171 0.32252
vn -0.14844 -0.92171 0.35836
vn -0.07567 -0.92171 0.38043
vn 0.00000 -0.92171 0.38789
vn 0.07567 -0.92171 0.38043
vn 0.14844 -0.92171 0.35836
vn 0.21550 -0.92171 0.32252
vn 0.27428 -0.92171 0.27428
vn 0.32252 -0.92171 0.21550
vn 0.35836 -0.92171 0.14844
vn 0.38043 -0.92171 0.07567
vn 0.38789 -0.92171 -0.00000
vn 0.38043 -0.92171 -0.07567
vn 0.35836 -0.92171 -0.14844
vn 0.32252 -0.92171 -0.21550
vn 0.27428 -0.92171 -0.27428
vn 0.21550 -0.92171 -0.32252
vn 0.14844 -0.92171 -0.35836
vn 0.07567 -0.92171 -0.38043
vn -0.03921 -0.97960 -0.19711
vn -0.00000 -0.97960 -0.20097
vn -0.07691 -0.97960 -0.18567
vn -0.11165 -0.97960 -0.16710
vn -0.14211 -0.97960 -0.14211
vn -0.16710 -0.97960 -0.11165
vn -0.18567 -0.97960 -0.07691
vn -0.19711 -0.97960 -0.03921
vn -0.20097 -0.97960 0.00000
vn -0.19711 -0.97960 0.03921
vn -0.18567 -0.97960 0.07691
vn -0.16710 -0.97960 0.11165
vn -0.14211 -0.97960 0.14211
vn -0.11165 -0.97960 0.16710
vn -0.07691 -0.97960 0.18567
vn -0.03921 -0.97960 0.19711
vn 0.00000 -0.97960 0.20097
vn 0.03921 -0.97960 0.19711
vn 0.07691 -0.97960 0.18567
vn 0.11165 -0.97960 0.16710
vn 0.14211 -0.97960 0.14211
vn 0.16710 -0.97960 0.11165
vn 0.18567 -0.97960 0.07691
vn 0.19711 -0.97960 0.03921
vn 0.20097 -0.97960 -0.00000
vn 0.19711 -0.97960 -0.03921
vn 0.18567 -0.97960 -0.07691
vn 0.16710 -0.97960 -0.11165
vn 0.14211 -0.97960 -0.14211
vn 0.11165 -0.97960 -0.16710
vn 0.07691 -0.97960 -0.18567
vn 0.03921 -0.97960 -0.19711
vn -0.00000 -1.00000 0.00000
# 482 vertex normals

vt 0.01562 1.00000 1.00000
vt -0.00000 0.93750 1.00000
vt 0.03125 0.93750 1.00000
vt 0.04687 1.00000 1.00000
vt 0.06250 0.93750 1.00000
vt 0.07812 1.00000 1.00000
vt 0.09375 0.93750 1.00000
vt 0.10937 1.00000 1.00000
vt 0.12500 0.93750 1.00000
vt 0.14062 1.00000 1.00000
vt 0.15625 0.93750 1.00000
vt 0.17188 1.00000 1.00000
vt 0.18750 0.93750 1.00000
vt 0.20313 1.00000 1.00000
vt 0.21875 0.93750 1.00000
vt 0.23438 1.00000 1.00000
vt 0.25000 0.93750 1.00000
vt 0.26563 1.00000 1.00000
vt 0.28125 0.93750 1.00000
vt 0.29688 1.00000 1.00000
vt 0.31250 0.93750 1.00000
vt 0.32813 1.00000 1.00000
vt 0.34375 0.93750 1.00000
vt 0.35938 1.00000 1.00000
vt 0.37500 0.93750 1.00000
vt 0.39063 1.00000 1.00000
vt 0.40625 0.93750 1.00000
vt 0.42188 1.00000 1.00000
vt 0.43750 0.93750 1.00000
vt 0.45313 1.00000 1.00000
vt 0.46875 0.93750 1.00000
vt 0.48438 1.00000 1.00000
vt 0.50000 0.93750 1.00000
vt 0.51563 1.00000 1.00000
vt 0.53125 0.93750 1.00000
vt 0.54688 1.00000 1.00000
vt 0.56250 0.93750 1.00000
vt 0.57813 1.00000 1.00000
vt 0.59375 0.93750 1.00000
vt 0.60938 1.00000 1.00000
vt 0.62500 0.93750 1.00000
vt 0.64063 1.00000 1.00000
vt 0.65625 0.93750 1.00000
vt 0.67188 1.00000 1.00000
vt 0.68750 0.93750 1.00000
vt 0.70313 1.00000 1.00000
vt 0.71875 0.93750 1.00000
vt 0.73438 1.00000 1.00000
vt 0.75000 0.93750 1.00000
vt 0.76563 1.00000 1.00000
vt 0.78125 0.93750 1.00000
vt 0.79688 1.00000 1.00000
vt 0.81250 0.93750 1.00000
vt 0.82813 1.00000 1.00000
vt 0.84375 0.93750 1.00000
vt 0.85938 1.00000 1.00000
vt 0.87500 0.93750 1.00000
vt 0.89063 1.00000 1.00000
vt 0.90625 0.93750 1.00000
vt 0.92188 1.00000 1.00000
vt 0.93750 0.93750 1.00000
vt 0.95313 1.00000 1.00000
vt 0.96875 0.93750 1.00000
vt 0.98438 1.00000 1.00000
vt 1.00000 0.93750 1.00000
vt 0.03125 0.87500 1.00000
vt -0.00000 0.87500 1.00000
vt 0.06250 0.87500 1.00000
vt 0.09375 0.87500 1.00000
vt 0.12500 0.87500 1.00000
vt 0.15625 0.87500 1.00000
vt 0.18750 0.87500 1.00000
vt 0.21875 0.87500 1.00000
vt 0.25000 0.87500 1.00000
vt 0.28125 0.87500 1.00000
vt 0.31250 0.87500 1.00000
vt 0.34375 0.87500 1.00000
vt 0.37500 0.87500 1.00000
vt 0.40625 0.87500 1.00000
vt 0.43750 0.87500 1.00000
vt 0.46875 0.87500 1.00000
vt 0.50000 0.87500 1.00000
vt 0.53125 0.87500 1.00000
vt 0.56250 0.87500 1.00000
vt 0.59375 0.87500 1.00000
vt 0.62500 0.87500 1.00000
vt 0.65625 0.87500 1.00000
vt 0.68750 0.87500 1.00000
vt 0.71875 0.87500 1.00000
vt 0.75000 0.87500 1.00000
vt 0.78125 0.87500 1.00000
vt 0.81250 0.87500 1.00000
vt 0.84375 0.87500 1.00000
vt 0.87500 0.87500 1.00000
vt 0.90625 0.87500 1.00000
vt 0.93750 0.87500 1.00000
vt 0.96875 0.87500 1.00000
vt 1.00000 0.87500 1.00000
vt 0.03125 0.81250 1.00000
vt -0.00000 0.81250 1.00000
vt 0.06250 0.81250 1.00000
vt 0.09375 0.81250 1.00000
vt 0.12500 0.81250 1.00000
vt 0.15625 0.81250 1.00000
vt 0.18750 0.81250 1.00000
vt 0.21875 0.81250 1.00000
vt 0.25000 0.81250 1.00000
vt 0.28125 0.81250 1.00000
vt 0.31250 0.81250 1.00000
vt 0.34375 0.81250 1.00000
vt 0.37500 0.81250 1.00000
vt 0.40625 0.81250 1.00000
vt 0.43750 0.81250 1.00000
vt 0.46875 0.81250 1.00000
vt 0.50000 0.81250 1.00000
vt 0.53125 0.81250 1.00000
vt 0.56250 0.81250 1.00000
vt 0.59375 0.81250 1.00000
vt 0.62500 0.81250 1.00000
vt 0.65625 0.81250 1.00000
vt 0.68750 0.81250 1.00000
vt 0.71875 0.81250 1.00000
vt 0.75000 0.81250 1.00000
vt 0.78125 0.81250 1.00000
vt 0.81250 0.81250 1.00000
vt 0.84375 0.81250 1.00000
vt 0.87500 0.81250 1.00000
vt 0.90625 0.81250 1.00000
vt 0.93750 0.81250 1.00000
vt 0.96875 0.81250 1.00000
vt 1.00000 0.81250 1.00000
vt 0.03125 0.75000 1.00000
vt -0.00000 0.75000 1.00000
vt 0.06250 0.75000 1.00000
vt 0.09375 0.75000 1.00000
vt 0.12500 0.75000 1.00000
vt 0.15625 0.75000 1.00000
vt 0.18750 0.75000 1.00000
vt 0.21875 0.75000 1.00000
vt 0.25000 0.75000 1.00000
vt 0.28125 0.75000 1.00000
vt 0.31250 0.75000 1.00000
vt 0.34375 0.75000 1.00000
vt 0.37500 0.75000 1.00000
vt 0.40625 0.75000 1.00000
vt 0.43750 0.75000 1.00000
vt 0.46875 0.75000 1.00000
vt 0.50000 0.75000 1.00000
vt 0.53125 0.75000 1.00000
vt 0.56250 0.75000 1.00000
vt 0.59375 0.75000 1.00000
vt 0.62500 0.75000 1.00000
vt 0.65625 0.75000 1.00000
vt 0.68750 0.75000 1.00000
vt 0.71875 0.75000 1.00000
vt 0.75000 0.75000 1.00000
vt 0.78125 0.75000 1.00000
vt 0.81250 0.75000 1.00000
vt 0.84375 0.75000 1.00000
vt 0.87500 0.75000 1.00000
vt 0.90625 0.75000 1.00000
vt 0.93750 0.75000 1.00000
vt 0.96875 0.75000 1.00000
vt 1.00000 0.75000 1.00000
vt 0.03125 0.68750 1.00000
vt -0.00000 0.68750 1.00000
vt 0.06250 0.68750 1.00000
vt 0.09375 0.68750 1.00000
vt 0.12500 0.68750 1.00000
vt 0.15625 0.68750 1.00000
vt 0.18750 0.68750 1.00000
vt 0.21875 0.68750 1.00000
vt 0.25000 0.68750 1.00000
vt 0.28125 0.68750 1.00000
vt 0.31250 0.68750 1.00000
vt 0.34375 0.68750 1.00000
vt 0.37500 0.68750 1.00000
vt 0.40625 0.68750 1.00000
vt 0.43750 0.68750 1.00000
vt 0.46875 0.68750 1.00000
vt 0.50000 0.68750 1.00000
vt 0.53125 0.68750 1.00000
vt 0.56250 0.68750 1.00000
vt 0.59375 0.68750 1.00000
vt 0.62500 0.68750 1.00000
vt 0.65625 0.68750 1.00000
vt 0.68750 0.68750 1.00000
vt 0.71875 0.68750 1.00000
vt 0.75000 0.68750 1.00000
vt 0.78125 0.68750 1.00000
vt 0.81250 0.68750 1.00000
vt 0.84375 0.68750 1.00000
vt 0.87500 0.68750 1.00000
vt 0.90625 0.68750 1.00000
vt 0.93750 0.68750 1.00000
vt 0.96875 0.68750 1.00000
vt 1.00000 0.68750 1.00000
vt 0.03125 0.62500 1.00000
vt -0.00000 0.62500 1.00000
vt 0.06250 0.62500 1.00000
vt 0.09375 0.62500 1.00000
vt 0.12500 0.62500 1.00000
vt 0.15625 0.62500 1.00000
vt 0.18750 0.62500 1.00000
vt 0.21875 0.62500 1.00000
vt 0.25000 0.62500 1.00000
vt 0.28125 0.62500 1.00000
vt 0.31250 0.62500 1.00000
vt 0.34375 0.62500 1.00000
vt 0.37500 0.62500 1.00000
vt 0.40625 0.62500 1.00000
vt 0.43750 0.62500 1.00000
vt 0.46875 0.62500 1.00000
vt 0.50000 0.62500 1.00000
vt 0.53125 0.62500 1.00000
vt 0.56250 0.62500 1.00000
vt 0.59375 0.62500 1.00000
vt 0.62500 0.62500 1.00000
vt 0.65625 0.62500 1.00000
vt 0.68750 0.62500 1.00000
vt 0.71875 0.62500 1.00000
vt 0.75000 0.62500 1.00000
vt 0.78125 0.62500 1.00000
vt 0.81250 0.62500 1.00000
vt 0.84375 0.62500 1.00000
vt 0.87500 0.62500 1.00000
vt 0.90625 0.62500 1.00000
vt 0.93750 0.62500 1.00000
vt 0.96875 0.62500 1.00000
vt 1.00000 0.62500 1.00000
vt 0.03125 0.56250 1.00000
vt -0.00000 0.56250 1.00000
vt 0.06250 0.56250 1.00000
vt 0.09375 0.56250 1.00000
vt 0.12500 0.56250 1.00000
vt 0.15625 0.56250 1.00000
vt 0.18750 0.56250 1.00000
vt 0.21875 0.56250 1.00000
vt 0.25000 0.56250 1.00000
vt 0.28125 0.56250 1.00000
vt 0.31250 0.56250 1.00000
vt 0.34375 0.56250 1.00000
vt 0.37500 0.56250 1.00000
vt 0.40625 0.56250 1.00000
vt 0.43750 0.56250 1.00000
vt 0.46875 0.56250 1.00000
vt 0.50000 0.56250 1.00000
vt 0.53125 0.56250 1.00000
vt 0.56250 0.56250 1.00000
vt 0.59375 0.56250 1.00000
vt 0.62500 0.56250 1.00000
vt 0.65625 0.56250 1.00000
vt 0.68750 0.56250 1.00000
vt 0.71875 0.56250 1.00000
vt 0.75000 0.56250 1.00000
vt 0.78125 0.56250 1.00000
vt 0.81250 0.56250 1.00000
vt 0.84375 0.56250 1.00000
vt 0.87500 0.56250 1.00000
vt 0.90625 0.56250 1.00000
vt 0.93750 0.56250 1.00000
vt 0.96875 0.56250 1.00000
vt 1.00000 0.56250 1.00000
vt 0.03125 0.50000 1.00000
vt -0.00000 0.50000 1.00000
vt 0.06250 0.50000 1.00000
vt 0.09375 0.50000 1.00000
vt 0.12500 0.50000 1.00000
vt 0.15625 0.50000 1.00000
vt 0.18750 0.50000 1.00000
vt 0.21875 0.50000 1.00000
vt 0.25000 0.50000 1.00000
vt 0.28125 0.50000 1.00000
vt 0.31250 0.50000 1.00000
vt 0.34375 0.50000 1.00000
vt 0.37500 0.50000 1.00000
vt 0.40625 0.50000 1.00000
vt 0.43750 0.50000 1.00000
vt 0.46875 0.50000 1.00000
vt 0.50000 0.50000 1.00000
vt 0.53125 0.50000 1.00000
vt 0.56250 0.50000 1.00000
vt 0.59375 0.50000 1.00000
vt 0.62500 0.50000 1.00000
vt 0.65625 0.50000 1.00000
vt 0.68750 0.50000 1.00000
vt 0.71875 0.50000 1.00000
vt 0.75000 0.50000 1.00000
vt 0.78125 0.50000 1.00000
vt 0.81250 0.50000 1.00000
vt 0.84375 0.50000 1.00000
vt 0.87500 0.50000 1.00000
vt 0.90625 0.50000 1.00000
vt 0.93750 0.50000 1.00000
vt 0.96875 0.50000 1.00000
vt 1.00000 0.50000 1.00000
vt 0.03125 0.43750 1.00000
vt -0.00000 0.43750 1.00000
vt 0.06250 0.43750 1.00000
vt 0.09375 0.43750 1.00000
vt 0.12500 0.43750 1.00000
vt 0.15625 0.43750 1.00000
vt 0.18750 0.43750 1.00000
vt 0.21875 0.43750 1.00000
vt 0.25000 0.43750 1.00000
vt 0.28125 0.43750 1.00000
vt 0.31250 0.43750 1.00000
vt 0.34375 0.43750 1.00000
vt 0.37500 0.43750 1.00000
vt 0.40625 0.43750 1.00000
vt 0.43750 0.43750 1.00000
vt 0.46875 0.43750 1.00000
vt 0.50000 0.43750 1.00000
vt 0.53125 0.43750 1.00000
vt 0.56250 0.43750 1.00000
vt 0.59375 0.43750 1.00000
vt 0.62500 0.43750 1.00000
vt 0.65625 0.43750 1.00000
vt 0.68750 0.43750 1.00000
vt 0.71875 0.43750 1.00000
vt 0.75000 0.43750 1.00000
vt 0.78125 0.43750 1.00000
vt 0.81250 0.43750 1.00000
vt 0.84375 0.43750 1.00000
vt 0.87500 0.43750 1.00000
vt 0.90625 0.43750 1.00000
vt 0.93750 0.43750 1.00000
vt 0.96875 0.43750 1.00000
vt 1.00000 0.43750 1.00000
vt 0.03125 0.37500 1.00000
vt -0.00000 0.37500 1.00000
vt 0.06250 0.37500 1.00000
vt 0.09375 0.37500 1.00000
vt 0.12500 0.37500 1.00000
vt 0.15625 0.37500 1.00000
vt 0.18750 0.37500 1.00000
vt 0.21875 0.37500 1.00000
vt 0.25000 0.37500 1.00000
vt 0.28125 0.37500 1.00000
vt 0.31250 0.37500 1.00000
vt 0.34375 0.37500 1.00000
vt 0.37500 0.37500 1.00000
vt 0.40625 0.37500 1.00000
vt 0.43750 0.37500 1.00000
vt 0.46875 0.37500 1.00000
vt 0.50000 0.37500 1.00000
vt 0.53125 0.37500 1.00000
vt 0.56250 0.37500 1.00000
vt 0.59375 0.37500 1.00000
vt 0.62500 0.37500 1.00000
vt 0.65625 0.37500 1.00000
vt 0.68750 0.37500 1.00000
vt 0.71875 0.37500 1.00000
vt 0.75000 0.37500 1.00000
vt 0.78125 0.37500 1.00000
vt 0.81250 0.37500 1.00000
vt 0.84375 0.37500 1.00000
vt 0.87500 0.37500 1.00000
vt 0.90625 0.37500 1.00000
vt 0.93750 0.37500 1.00000
vt 0.96875 0.37500 1.00000
vt 1.00000 0.37500 1.00000
vt 0.03125 0.31250 1.00000
vt -0.00000 0.31250 1.00000
vt 0.06250 0.31250 1.00000
vt 0.09375 0.31250 1.00000
vt 0.12500 0.31250 1.00000
vt 0.15625 0.31250 1.00000
vt 0.18750 0.31250 1.00000
vt 0.21875 0.31250 1.00000
vt 0.25000 0.31250 1.00000
vt 0.28125 0.31250 1.00000
vt 0.31250 0.31250 1.00000
vt 0.34375 0.31250 1.00000
vt 0.37500 0.31250 1.00000
vt 0.40625 0.31250 1.00000
vt 0.43750 0.31250 1.00000
vt 0.46875 0.31250 1.00000
vt 0.50000 0.31250 1.00000
vt 0.53125 0.31250 1.00000
vt 0.56250 0.31250 1.00000
vt 0.59375 0.31250 1.00000
vt 0.62500 0.31250 1.00000
vt 0.65625 0.31250 1.00000
vt 0.68750 0.31250 1.00000
vt 0.71875 0.31250 1.00000
vt 0.75000 0.31250 1.00000
vt 0.78125 0.31250 1.00000
vt 0.81250 0.31250 1.00000
vt 0.84375 0.31250 1.00000
vt 0.87500 0.31250 1.00000
vt 0.90625 0.31250 1.00000
vt 0.93750 0.31250 1.00000
vt 0.96875 0.31250 1.00000
vt 1.00000 0.31250 1.00000
vt 0.03125 0.25000 1.00000
vt -0.00000 0.25000 1.00000
vt 0.06250 0.25000 1.00000
vt 0.09375 0.25000 1.00000
vt 0.12500 0.25000 1.00000
vt 0.15625 0.25000 1.00000
vt 0.18750 0.25000 1.00000
vt 0.21875 0.25000 1.00000
vt 0.25000 0.25000 1.00000
vt 0.28125 0.25000 1.00000
vt 0.31250 0.25000 1.00000
vt 0.34375 0.25000 1.00000
vt 0.37500 0.25000 1.00000
vt 0.40625 0.25000 1.00000
vt 0.43750 0.25000 1.00000
vt 0.46875 0.25000 1.00000
vt 0.50000 0.25000 1.00000
vt 0.53125 0.25000 1.00000
vt 0.56250 0.25000 1.00000
vt 0.59375 0.25000 1.00000
vt 0.62500 0.25000 1.00000
vt 0.65625 0.25000 1.00000
vt 0.68750 0.25000 1.00000
vt 0.71875 0.25000 1.00000
vt 0.75000 0.25000 1.00000
vt 0.78125 0.25000 1.00000
vt 0.81250 0.25000 1.00000
vt 0.84375 0.25000 1.00000
vt 0.87500 0.25000 1.00000
vt 0.90625 0.25000 1.00000
vt 0.93750 0.25000 1.00000
vt 0.96875 0.25000 1.00000
vt 1.00000 0.25000 1.00000
vt 0.03125 0.18750 1.00000
vt -0.00000 0.18750 1.00000
vt 0.06250 0.18750 1.00000
vt 0.09375 0.18750 1.00000
vt 0.12500 0.18750 1.00000
vt 0.15625 0.18750 1.00000
vt 0.18750 0.18750 1.00000
vt 0.21875 0.18750 1.00000
vt 0.25000 0.18750 1.00000
vt 0.28125 0.18750 1.00000
vt 0.31250 0.18750 1.00000
vt 0.34375 0.18750 1.00000
vt 0.37500 0.18750 1.00000
vt 0.40625 0.18750 1.00000
vt 0.43750 0.18750 1.00000
vt 0.46875 0.18750 1.00000
vt 0.50000 0.18750 1.00000
vt 0.53125 0.18750 1.00000
vt 0.56250 0.18750 1.00000
vt 0.59375 0.18750 1.00000
vt 0.62500 0.18750 1.00000
vt 0.65625 0.18750 1.00000
vt 0.68750 0.18750 1.00000
vt 0.71875 0.18750 1.00000
vt 0.75000 0.18750 1.00000
vt 0.78125 0.18750 1.00000
vt 0.81250 0.18750 1.00000
vt 0.84375 0.18750 1.00000
vt 0.87500 0.18750 1.00000
vt 0.90625 0.18750 1.00000
vt 0.93750 0.18750 1.00000
vt 0.96875 0.18750 1.00000
vt 1.00000 0.18750 1.00000
vt 0.03125 0.12500 1.00000
vt -0.00000 0.12500 1.00000
vt 0.06250 0.12500 1.00000
vt 0.09375 0.12500 1.00000
vt 0.12500 0.12500 1.00000
vt 0.15625 0.12500 1.00000
vt 0.18750 0.12500 1.00000
vt 0.21875 0.12500 1.00000
vt 0.25000 0.12500 1.00000
vt 0.28125 0.12500 1.00000
vt 0.31250 0.12500 1.00000
vt 0.34375 0.12500 1.00000
vt 0.37500 0.12500 1.00000
vt 0.40625 0.12500 1.00000
vt 0.43750 0.12500 1.00000
vt 0.46875 0.12500 1.00000
vt 0.50000 0.12500 1.00000
vt 0.53125 0.12500 1.00000
vt 0.56250 0.12500 1.00000
vt 0.59375 0.12500 1.00000
vt 0.62500 0.12500 1.00000
vt 0.65625 0.12500 1.00000
vt 0.68750 0.12500 1.00000
vt 0.71875 0.12500 1.00000
vt 0.75000 0.12500 1.00000
vt 0.78125 0.12500 1.00000
vt 0.81250 0.12500 1.00000
vt 0.84375 0.12500 1.00000
vt 0.87500 0.12500 1.00000
vt 0.90625 0.12500 1.00000
vt 0.93750 0.12500 1.00000
vt 0.96875 0.12500 1.00000
vt 1.00000 0.12500 1.00000
vt 0.03125 0.06250 1.00000
vt -0.00000 0.06250 1.00000
vt 0.06250 0.06250 1.00000
vt 0.09375 0.06250 1.00000
vt 0.12500 0.06250 1.00000
vt 0.15625 0.06250 1.00000
vt 0.18750 0.06250 1.00000
vt 0.21875 0.06250 1.00000
vt 0.25000 0.06250 1.00000
vt 0.28125 0.06250 1.00000
vt 0.31250 0.06250 1.00000
vt 0.34375 0.06250 1.00000
vt 0.37500 0.06250 1.00000
vt 0.40625 0.06250 1.00000
vt 0.43750 0.06250 1.00000
vt 0.46875 0.06250 1.00000
vt 0.50000 0.06250 1.00000
vt 0.53125 0.06250 1.00000
vt 0.56250 0.06250 1.00000
vt 0.59375 0.06250 1.00000
vt 0.62500 0.06250 1.00000
vt 0.65625 0.06250 1.00000
vt 0.68750 0.06250 1.00000
vt 0.71875 0.06250 1.00000
vt 0.75000 0.06250 1.00000
vt 0.78125 0.06250 1.00000
vt 0.81250 0.06250 1.00000
vt 0.84375 0.06250 1.00000
vt 0.87500 0.06250 1.00000
vt 0.90625 0.06250 1.00000
vt 0.93750 0.06250 1.00000
vt 0.96875 0.06250 1.00000
vt 1.00000 0.06250 1.00000
vt 0.01562 0.00000 1.00000
vt 0.04687 0.00000 1.00000
vt 0.07812 0.00000 1.00000
vt 0.10937 0.00000 1.00000
vt 0.14062 0.00000 1.00000
vt 0.17188 0.00000 1.00000
vt 0.20313 0.00000 1.00000
vt 0.23438 0.00000 1.00000
vt 0.26563 0.00000 1.00000
vt 0.29688 0.00000 1.00000
vt 0.32813 0.00000 1.00000
vt 0.35938 0.00000 1.00000
vt 0.39063 0.00000 1.00000
vt 0.42188 0.00000 1.00000
vt 0.45313 0.00000 1.00000
vt 0.48438 0.00000 1.00000
vt 0.51563 0.00000 1.00000
vt 0.54688 0.00000 1.00000
vt 0.57813 0.00000 1.00000
vt 0.60938 0.00000 1.00000
vt 0.64063 0.00000 1.00000
vt 0.67188 0.00000 1.00000
vt 0.70313 0.00000 1.00000
vt 0.73438 0.00000 1.00000
vt 0.76563 0.00000 1.00000
vt 0.79688 0.00000 1.00000
vt 0.82813 0.00000 1.00000
vt 0.85938 0.00000 1.00000
vt 0.89063 0.00000 1.00000
vt 0.92188 0.00000 1.00000
vt 0.95313 0.00000 1.00000
vt 0.98438 0.00000 1.00000
# 559 texture coords

g Sphere001
s 1
f 1/1/1 2/2/2 3/3/3 
f 1/4/1 3/3/3 4/5/4 
f 1/6/1 4/5/4 5/7/5 
f 1/8/1 5/7/5 6/9/6 
f 1/10/1 6/9/6 7/11/7 
f 1/12/1 7/11/7 8/13/8 
f 1/14/1 8/13/8 9/15/9 
f 1/16/1 9/15/9 10/17/10 
f 1/18/1 10/17/10 11/19/11 
f 1/20/1 11/19/11 12/21/12 
f 1/22/1 12/21/12 13/23/13 
f 1/24/1 13/23/13 14/25/14 
f 1/26/1 14/25/14 15/27/15 
f 1/28/1 15/27/15 16/29/16 
f 1/30/1 16/29/16 17/31/17 
f 1/32/1 17/31/17 18/33/18 
f 1/34/1 18/33/18 19/35/19 
f 1/36/1 19/35/19 20/37/20 
f 1/38/1 20/37/20 21/39/21 
f 1/40/1 21/39/21 22/41/22 
f 1/42/1 22/41/22 23/43/23 
f 1/44/1 23/43/23 24/45/24 
f 1/46/1 24/45/24 25/47/25 
f 1/48/1 25/47/25 26/49/26 
f 1/50/1 26/49/26 27/51/27 
f 1/52/1 27/51/27 28/53/28 
f 1/54/1 28/53/28 29/55/29 
f 1/56/1 29/55/29 30/57/30 
f 1/58/1 30/57/30 31/59/31 
f 1/60/1 31/59/31 32/61/32 
f 1/62/1 32/61/32 33/63/33 
f 1/64/1 33/63/33 2/65/2 
f 34/66/34 3/3/3 2/2/2 35/67/35 
f 36/68/36 4/5/4 3/3/3 34/66/34 
f 37/69/37 5/7/5 4/5/4 36/68/36 
f 38/70/38 6/9/6 5/7/5 37/69/37 
f 39/71/39 7/11/7 6/9/6 38/70/38 
f 40/72/40 8/13/8 7/11/7 39/71/39 
f 41/73/41 9/15/9 8/13/8 40/72/40 
f 42/74/42 10/17/10 9/15/9 41/73/41 
f 43/75/43 11/19/11 10/17/10 42/74/42 
f 44/76/44 12/21/12 11/19/11 43/75/43 
f 45/77/45 13/23/13 12/21/12 44/76/44 
f 46/78/46 14/25/14 13/23/13 45/77/45 
f 47/79/47 15/27/15 14/25/14 46/78/46 
f 48/80/48 16/29/16 15/27/15 47/79/47 
f 49/81/49 17/31/17 16/29/16 48/80/48 
f 50/82/50 18/33/18 17/31/17 49/81/49 
f 51/83/51 19/35/19 18/33/18 50/82/50 
f 52/84/52 20/37/20 19/35/19 51/83/51 
f 53/85/53 21/39/21 20/37/20 52/84/52 
f 54/86/54 22/41/22 21/39/21 53/85/53 
f 55/87/55 23/43/23 22/41/22 54/86/54 
f 56/88/56 24/45/24 23/43/23 55/87/55 
f 57/89/57 25/47/25 24/45/24 56/88/56 
f 58/90/58 26/49/26 25/47/25 57/89/57 
f 59/91/59 27/51/27 26/49/26 58/90/58 
f 60/92/60 28/53/28 27/51/27 59/91/59 
f 61/93/61 29/55/29 28/53/28 60/92/60 
f 62/94/62 30/57/30 29/55/29 61/93/61 
f 63/95/63 31/59/31 30/57/30 62/94/62 
f 64/96/64 32/61/32 31/59/31 63/95/63 
f 65/97/65 33/63/33 32/61/32 64/96/64 
f 35/98/35 2/65/2 33/63/33 65/97/65 
f 66/99/66 34/66/34 35/67/35 67/100/67 
f 68/101/68 36/68/36 34/66/34 66/99/66 
f 69/102/69 37/69/37 36/68/36 68/101/68 
f 70/103/70 38/70/38 37/69/37 69/102/69 
f 71/104/71 39/71/39 38/70/38 70/103/70 
f 72/105/72 40/72/40 39/71/39 71/104/71 
f 73/106/73 41/73/41 40/72/40 72/105/72 
f 74/107/74 42/74/42 41/73/41 73/106/73 
f 75/108/75 43/75/43 42/74/42 74/107/74 
f 76/109/76 44/76/44 43/75/43 75/108/75 
f 77/110/77 45/77/45 44/76/44 76/109/76 
f 78/111/78 46/78/46 45/77/45 77/110/77 
f 79/112/79 47/79/47 46/78/46 78/111/78 
f 80/113/80 48/80/48 47/79/47 79/112/79 
f 81/114/81 49/81/49 48/80/48 80/113/80 
f 82/115/82 50/82/50 49/81/49 81/114/81 
f 83/116/83 51/83/51 50/82/50 82/115/82 
f 84/117/84 52/84/52 51/83/51 83/116/83 
f 85/118/85 53/85/53 52/84/52 84/117/84 
f 86/119/86 54/86/54 53/85/53 85/118/85 
f 87/120/87 55/87/55 54/86/54 86/119/86 
f 88/121/88 56/88/56 55/87/55 87/120/87 
f 89/122/89 57/89/57 56/88/56 88/121/88 
f 90/123/90 58/90/58 57/89/57 89/122/89 
f 91/124/91 59/91/59 58/90/58 90/123/90 
f 92/125/92 60/92/60 59/91/59 91/124/91 
f 93/126/93 61/93/61 60/92/60 92/125/92 
f 94/127/94 62/94/62 61/93/61 93/126/93 
f 95/128/95 63/95/63 62/94/62 94/127/94 
f 96/129/96 64/96/64 63/95/63 95/128/95 
f 97/130/97 65/97/65 64/96/64 96/129/96 
f 67/131/67 35/98/35 65/97/65 97/130/97 
f 98/132/98 66/99/66 67/100/67 99/133/99 
f 100/134/100 68/101/68 66/99/66 98/132/98 
f 101/135/101 69/102/69 68/101/68 100/134/100 
f 102/136/102 70/103/70 69/102/69 101/135/101 
f 103/137/103 71/104/71 70/103/70 102/136/102 
f 104/138/104 72/105/72 71/104/71 103/137/103 
f 105/139/105 73/106/73 72/105/72 104/138/104 
f 106/140/106 74/107/74 73/106/73 105/139/105 
f 107/141/107 75/108/75 74/107/74 106/140/106 
f 108/142/108 76/109/76 75/108/75 107/141/107 
f 109/143/109 77/110/77 76/109/76 108/142/108 
f 110/144/110 78/111/78 77/110/77 109/143/109 
f 111/145/111 79/112/79 78/111/78 110/144/110 
f 112/146/112 80/113/80 79/112/79 111/145/111 
f 113/147/113 81/114/81 80/113/80 112/146/112 
f 114/148/114 82/115/82 81/114/81 113/147/113 
f 115/149/115 83/116/83 82/115/82 114/148/114 
f 116/150/116 84/117/84 83/116/83 115/149/115 
f 117/151/117 85/118/85 84/117/84 116/150/116 
f 118/152/118 86/119/86 85/118/85 117/151/117 
f 119/153/119 87/120/87 86/119/86 118/152/118 
f 120/154/120 88/121/88 87/120/87 119/153/119 
f 121/155/121 89/122/89 88/121/88 120/154/120 
f 122/156/122 90/123/90 89/122/89 121/155/121 
f 123/157/123 91/124/91 90/123/90 122/156/122 
f 124/158/124 92/125/92 91/124/91 123/157/123 
f 125/159/125 93/126/93 92/125/92 124/158/124 
f 126/160/126 94/127/94 93/126/93 125/159/125 
f 127/161/127 95/128/95 94/127/94 126/160/126 
f 128/162/128 96/129/96 95/128/95 127/161/127 
f 129/163/129 97/130/97 96/129/96 128/162/128 
f 99/164/99 67/131/67 97/130/97 129/163/129 
f 130/165/130 98/132/98 99/133/99 131/166/131 
f 132/167/132 100/134/100 98/132/98 130/165/130 
f 133/168/133 101/135/101 100/134/100 132/167/132 
f 134/169/134 102/136/102 101/135/101 133/168/133 
f 135/170/135 103/137/103 102/136/102 134/169/134 
f 136/171/136 104/138/104 103/137/103 135/170/135 
f 137/172/137 105/139/105 104/138/104 136/171/136 
f 138/173/138 106/140/106 105/139/105 137/172/137 
f 139/174/139 107/141/107 106/140/106 138/173/138 
f 140/175/140 108/142/108 107/141/107 139/174/139 
f 141/176/141 109/143/109 108/142/108 140/175/140 
f 142/177/142 110/144/110 109/143/109 141/176/141 
f 143/178/143 111/145/111 110/144/110 142/177/142 
f 144/179/144 112/146/112 111/145/111 143/178/143 
f 145/180/145 113/147/113 112/146/112 144/179/144 
f 146/181/146 114/148/114 113/147/113 145/180/145 
f 147/182/147 115/149/115 114/148/114 146/181/146 
f 148/183/148 116/150/116 115/149/115 147/182/147 
f 149/184/149 117/151/117 116/150/116 148/183/148 
f 150/185/150 118/152/118 117/151/117 149/184/149 
f 151/186/151 119/153/119 118/152/118 150/185/150 
f 152/187/152 120/154/120 119/153/119 151/186/151 
f 153/188/153 121/155/121 120/154/120 152/187/152 
f 154/189/154 122/156/122 121/155/121 153/188/153 
f 155/190/155 123/157/123 122/156/122 154/189/154 
f 156/191/156 124/158/124 123/157/123 155/190/155 
f 157/192/157 125/159/125 124/158/124 156/191/156 
f 158/193/158 126/160/126 125/159/125 157/192/157 
f 159/194/159 127/161/127 126/160/126 158/193/158 
f 160/195/160 128/162/128 127/161/127 159/194/159 
f 161/196/161 129/163/129 128/162/128 160/195/160 
f 131/197/131 99/164/99 129/163/129 161/196/161 
f 162/198/162 130/165/130 131/166/131 163/199/163 
f 164/200/164 132/167/132 130/165/130 162/198/162 
f 165/201/165 133/168/133 132/167/132 164/200/164 
f 166/202/166 134/169/134 133/168/133 165/201/165 
f 167/203/167 135/170/135 134/169/134 166/202/166 
f 168/204/168 136/171/136 135/170/135 167/203/167 
f 169/205/169 137/172/137 136/171/136 168/204/168 
f 170/206/170 138/173/138 137/172/137 169/205/169 
f 171/207/171 139/174/139 138/173/138 170/206/170 
f 172/208/172 140/175/140 139/174/139 171/207/171 
f 173/209/173 141/176/141 140/175/140 172/208/172 
f 174/210/174 142/177/142 141/176/141 173/209/173 
f 175/211/175 143/178/143 142/177/142 174/210/174 
f 176/212/176 144/179/144 143/178/143 175/211/175 
f 177/213/177 145/180/145 144/179/144 176/212/176 
f 178/214/178 146/181/146 145/180/145 177/213/177 
f 179/215/179 147/182/147 146/181/146 178/214/178 
f 180/216/180 148/183/148 147/182/147 179/215/179 
f 181/217/181 149/184/149 148/183/148 180/216/180 
f 182/218/182 150/185/150 149/184/149 181/217/181 
f 183/219/183 151/186/151 150/185/150 182/218/182 
f 184/220/184 152/187/152 151/186/151 183/219/183 
f 185/221/185 153/188/153 152/187/152 184/220/184 
f 186/222/186 154/189/154 153/188/153 185/221/185 
f 187/223/187 155/190/155 154/189/154 186/222/186 
f 188/224/188 156/191/156 155/190/155 187/223/187 
f 189/225/189 157/192/157 156/191/156 188/224/188 
f 190/226/190 158/193/158 157/192/157 189/225/189 
f 191/227/191 159/194/159 158/193/158 190/226/190 
f 192/228/192 160/195/160 159/194/159 191/227/191 
f 193/229/193 161/196/161 160/195/160 192/228/192 
f 163/230/163 131/197/131 161/196/161 193/229/193 
f 194/231/194 162/198/162 163/199/163 195/232/195 
f 196/233/196 164/200/164 162/198/162 194/231/194 
f 197/234/197 165/201/165 164/200/164 196/233/196 
f 198/235/198 166/202/166 165/201/165 197/234/197 
f 199/236/199 167/203/167 166/202/166 198/235/198 
f 200/237/200 168/204/168 167/203/167 199/236/199 
f 201/238/201 169/205/169 168/204/168 200/237/200 
f 202/239/202 170/206/170 169/205/169 201/238/201 
f 203/240/203 171/207/171 170/206/170 202/239/202 
f 204/241/204 172/208/172 171/207/171 203/240/203 
f 205/242/205 173/209/173 172/208/172 204/241/204 
f 206/243/206 174/210/174 173/209/173 205/242/205 
f 207/244/207 175/211/175 174/210/174 206/243/206 
f 208/245/208 176/212/176 175/211/175 207/244/207 
f 209/246/209 177/213/177 176/212/176 208/245/208 
f 210/247/210 178/214/178 177/213/177 209/246/209 
f 211/248/211 179/215/179 178/214/178 210/247/210 
f 212/249/212 180/216/180 179/215/179 211/248/211 
f 213/250/213 181/217/181 180/216/180 212/249/212 
f 214/251/214 182/218/182 181/217/181 213/250/213 
f 215/252/215 183/219/183 182/218/182 214/251/214 
f 216/253/216 184/220/184 183/219/183 215/252/215 
f 217/254/217 185/221/185 184/220/184 216/253/216 
f 218/255/218 186/222/186 185/221/185 217/254/217 
f 219/256/219 187/223/187 186/222/186 218/255/218 
f 220/257/220 188/224/188 187/223/187 219/256/219 
f 221/258/221 189/225/189 188/224/188 220/257/220 
f 222/259/222 190/226/190 189/225/189 221/258/221 
f 223/260/223 191/227/191 190/226/190 222/259/222 
f 224/261/224 192/228/192 191/227/191 223/260/223 
f 225/262/225 193/229/193 192/228/192 224/261/224 
f 195/263/195 163/230/163 193/229/193 225/262/225 
f 226/264/226 194/231/194 195/232/195 227/265/227 
f 228/266/228 196/233/196 194/231/194 226/264/226 
f 229/267/229 197/234/197 196/233/196 228/266/228 
f 230/268/230 198/235/198 197/234/197 229/267/229 
f 231/269/231 199/236/199 198/235/198 230/268/230 
f 232/270/232 200/237/200 199/236/199 231/269/231 
f 233/271/233 201/238/201 200/237/200 232/270/232 
f 234/272/234 202/239/202 201/238/201 233/271/233 
f 235/273/235 203/240/203 202/239/202 234/272/234 
f 236/274/236 204/241/204 203/240/203 235/273/235 
f 237/275/237 205/242/205 204/241/204 236/274/236 
f 238/276/238 206/243/206 205/242/205 237/275/237 
f 239/277/239 207/244/207 206/243/206 238/276/238 
f 240/278/240 208/245/208 207/244/207 239/277/239 
f 241/279/241 209/246/209 208/245/208 240/278/240 
f 242/280/242 210/247/210 209/246/209 241/279/241 
f 243/281/243 211/248/211 210/247/210 242/280/242 
f 244/282/244 212/249/212 211/248/211 243/281/243 
f 245/283/245 213/250/213 212/249/212 244/282/244 
f 246/284/246 214/251/214 213/250/213 245/283/245 
f 247/285/247 215/252/215 214/251/214 246/284/246 
f 248/286/248 216/253/216 215/252/215 247/285/247 
f 249/287/249 217/254/217 216/253/216 248/286/248 
f 250/288/250 218/255/218 217/254/217 249/287/249 
f 251/289/251 219/256/219 218/255/218 250/288/250 
f 252/290/252 220/257/220 219/256/219 251/289/251 
f 253/291/253 221/258/221 220/257/220 252/290/252 
f 254/292/254 222/259/222 221/258/221 253/291/253 
f 255/293/255 223/260/223 222/259/222 254/292/254 
f 256/294/256 224/261/224 223/260/223 255/293/255 
f 257/295/257 225/262/225 224/261/224 256/294/256 
f 227/296/227 195/263/195 225/262/225 257/295/257 
f 258/297/258 226/264/226 227/265/227 259/298/259 
f 260/299/260 228/266/228 226/264/226 258/297/258 
f 261/300/261 229/267/229 228/266/228 260/299/260 
f 262/301/262 230/268/230 229/267/229 261/300/261 
f 263/302/263 231/269/231 230/268/230 262/301/262 
f 264/303/264 232/270/232 231/269/231 263/302/263 
f 265/304/265 233/271/233 232/270/232 264/303/264 
f 266/305/266 234/272/234 233/271/233 265/304/265 
f 267/306/267 235/273/235 234/272/234 266/305/266 
f 268/307/268 236/274/236 235/273/235 267/306/267 
f 269/308/269 237/275/237 236/274/236 268/307/268 
f 270/309/270 238/276/238 237/275/237 269/308/269 
f 271/310/271 239/277/239 238/276/238 270/309/270 
f 272/311/272 240/278/240 239/277/239 271/310/271 
f 273/312/273 241/279/241 240/278/240 272/311/272 
f 274/313/274 242/280/242 241/279/241 273/312/273 
f 275/314/275 243/281/243 242/280/242 274/313/274 
f 276/315/276 244/282/244 243/281/243 275/314/275 
f 277/316/277 245/283/245 244/282/244 276/315/276 
f 278/317/278 246/284/246 245/283/245 277/316/277 
f 279/318/279 247/285/247 246/284/246 278/317/278 
f 280/319/280 248/286/248 247/285/247 279/318/279 
f 281/320/281 249/287/249 248/286/248 280/319/280 
f 282/321/282 250/288/250 249/287/249 281/320/281 
f 283/322/283 251/289/251 250/288/250 282/321/282 
f 284/323/284 252/290/252 251/289/251 283/322/283 
f 285/324/285 253/291/253 252/290/252 284/323/284 
f 286/325/286 254/292/254 253/291/253 285/324/285 
f 287/326/287 255/293/255 254/292/254 286/325/286 
f 288/327/288 256/294/256 255/293/255 287/326/287 
f 289/328/289 257/295/257 256/294/256 288/327/288 
f 259/329/259 227/296/227 257/295/257 289/328/289 
f 290/330/290 258/297/258 259/298/259 291/331/291 
f 292/332/292 260/299/260 258/297/258 290/330/290 
f 293/333/293 261/300/261 260/299/260 292/332/292 
f 294/334/294 262/301/262 261/300/261 293/333/293 
f 295/335/295 263/302/263 262/301/262 294/334/294 
f 296/336/296 264/303/264 263/302/263 295/335/295 
f 297/337/297 265/304/265 264/303/264 296/336/296 
f 298/338/298 266/305/266 265/304/265 297/337/297 
f 299/339/299 267/306/267 266/305/266 298/338/298 
f 300/340/300 268/307/268 267/306/267 299/339/299 
f 301/341/301 269/308/269 268/307/268 300/340/300 
f 302/342/302 270/309/270 269/308/269 301/341/301 
f 303/343/303 271/310/271 270/309/270 302/342/302 
f 304/344/304 272/311/272 271/310/271 303/343/303 
f 305/345/305 273/312/273 272/311/272 304/344/304 
f 306/346/306 274/313/274 273/312/273 305/345/305 
f 307/347/307 275/314/275 274/313/274 306/346/306 
f 308/348/308 276/315/276 275/314/275 307/347/307 
f 309/349/309 277/316/277 276/315/276 308/348/308 
f 310/350/310 278/317/278 277/316/277 309/349/309 
f 311/351/311 279/318/279 278/317/278 310/350/310 
f 312/352/312 280/319/280 279/318/279 311/351/311 
f 313/353/313 281/320/281 280/319/280 312/352/312 
f 314/354/314 282/321/282 281/320/281 313/353/313 
f 315/355/315 283/322/283 282/321/282 314/354/314 
f 316/356/316 284/323/284 283/322/283 315/355/315 
f 317/357/317 285/324/285 284/323/284 316/356/316 
f 318/358/318 286/325/286 285/324/285 317/357/317 
f 319/359/319 287/326/287 286/325/286 318/358/318 
f 320/360/320 288/327/288 287/326/287 319/359/319 
f 321/361/321 289/328/289 288/327/288 320/360/320 
f 291/362/291 259/329/259 289/328/289 321/361/321 
f 322/363/322 290/330/290 291/331/291 323/364/323 
f 324/365/324 292/332/292 290/330/290 322/363/322 
f 325/366/325 293/333/293 292/332/292 324/365/324 
f 326/367/326 294/334/294 293/333/293 325/366/325 
f 327/368/327 295/335/295 294/334/294 326/367/326 
f 328/369/328 296/336/296 295/335/295 327/368/327 
f 329/370/329 297/337/297 296/336/296 328/369/328 
f 330/371/330 298/338/298 297/337/297 329/370/329 
f 331/372/331 299/339/299 298/338/298 330/371/330 
f 332/373/332 300/340/300 299/339/299 331/372/331 
f 333/374/333 301/341/301 300/340/300 332/373/332 
f 334/375/334 302/342/302 301/341/301 333/374/333 
f 335/376/335 303/343/303 302/342/302 334/375/334 
f 336/377/336 304/344/304 303/343/303 335/376/335 
f 337/378/337 305/345/305 304/344/304 336/377/336 
f 338/379/338 306/346/306 305/345/305 337/378/337 
f 339/380/339 307/347/307 306/346/306 338/379/338 
f 340/381/340 308/348/308 307/347/307 339/380/339 
f 341/382/341 309/349/309 308/348/308 340/381/340 
f 342/383/342 310/350/310 309/349/309 341/382/341 
f 343/384/343 311/351/311 310/350/310 342/383/342 
f 344/385/344 312/352/312 311/351/311 343/384/343 
f 345/386/345 313/353/313 312/352/312 344/385/344 
f 346/387/346 314/354/314 313/353/313 345/386/345 
f 347/388/347 315/355/315 314/354/314 346/387/346 
f 348/389/348 316/356/316 315/355/315 347/388/347 
f 349/390/349 317/357/317 316/356/316 348/389/348 
f 350/391/350 318/358/318 317/357/317 349/390/349 
f 351/392/351 319/359/319 318/358/318 350/391/350 
f 352/393/352 320/360/320 319/359/319 351/392/351 
f 353/394/353 321/361/321 320/360/320 352/393/352 
f 323/395/323 291/362/291 321/361/321 353/394/353 
f 354/396/354 322/363/322 323/364/323 355/397/355 
f 356/398/356 324/365/324 322/363/322 354/396/354 
f 357/399/357 325/366/325 324/365/324 356/398/356 
f 358/400/358 326/367/326 325/366/325 357/399/357 
f 359/401/359 327/368/327 326/367/326 358/400/358 
f 360/402/360 328/369/328 327/368/327 359/401/359 
f 361/403/361 329/370/329 328/369/328 360/402/360 
f 362/404/362 330/371/330 329/370/329 361/403/361 
f 363/405/363 331/372/331 330/371/330 362/404/362 
f 364/406/364 332/373/332 331/372/331 363/405/363 
f 365/407/365 333/374/333 332/373/332 364/406/364 
f 366/408/366 334/375/334 333/374/333 365/407/365 
f 367/409/367 335/376/335 334/375/334 366/408/366 
f 368/410/368 336/377/336 335/376/335 367/409/367 
f 369/411/369 337/378/337 336/377/336 368/410/368 
f 370/412/370 338/379/338 337/378/337 369/411/369 
f 371/413/371 339/380/339 338/379/338 370/412/370 
f 372/414/372 340/381/340 339/380/339 371/413/371 
f 373/415/373 341/382/341 340/381/340 372/414/372 
f 374/416/374 342/383/342 341/382/341 373/415/373 
f 375/417/375 343/384/343 342/383/342 374/416/374 
f 376/418/376 344/385/344 343/384/343 375/417/375 
f 377/419/377 345/386/345 344/385/344 376/418/376 
f 378/420/378 346/387/346 345/386/345 377/419/377 
f 379/421/379 347/388/347 346/387/346 378/420/378 
f 380/422/380 348/389/348 347/388/347 379/421/379 
f 381/423/381 349/390/349 348/389/348 380/422/380 
f 382/424/382 350/391/350 349/390/349 381/423/381 
f 383/425/383 351/392/351 350/391/350 382/424/382 
f 384/426/384 352/393/352 351/392/351 383/425/383 
f 385/427/385 353/394/353 352/393/352 384/426/384 
f 355/428/355 323/395/323 353/394/353 385/427/385 
f 386/429/386 354/396/354 355/397/355 387/430/387 
f 388/431/388 356/398/356 354/396/354 386/429/386 
f 389/432/389 357/399/357 356/398/356 388/431/388 
f 390/433/390 358/400/358 357/399/357 389/432/389 
f 391/434/391 359/401/359 358/400/358 390/433/390 
f 392/435/392 360/402/360 359/401/359 391/434/391 
f 393/436/393 361/403/361 360/402/360 392/435/392 
f 394/437/394 362/404/362 361/403/361 393/436/393 
f 395/438/395 363/405/363 362/404/362 394/437/394 
f 396/439/396 364/406/364 363/405/363 395/438/395 
f 397/440/397 365/407/365 364/406/364 396/439/396 
f 398/441/398 366/408/366 365/407/365 397/440/397 
f 399/442/399 367/409/367 366/408/366 398/441/398 
f 400/443/400 368/410/368 367/409/367 399/442/399 
f 401/444/401 369/411/369 368/410/368 400/443/400 
f 402/445/402 370/412/370 369/411/369 401/444/401 
f 403/446/403 371/413/371 370/412/370 402/445/402 
f 404/447/404 372/414/372 371/413/371 403/446/403 
f 405/448/405 373/415/373 372/414/372 404/447/404 
f 406/449/406 374/416/374 373/415/373 405/448/405 
f 407/450/407 375/417/375 374/416/374 406/449/406 
f 408/451/408 376/418/376 375/417/375 407/450/407 
f 409/452/409 377/419/377 376/418/376 408/451/408 
f 410/453/410 378/420/378 377/419/377 409/452/409 
f 411/454/411 379/421/379 378/420/378 410/453/410 
f 412/455/412 380/422/380 379/421/379 411/454/411 
f 413/456/413 381/423/381 380/422/380 412/455/412 
f 414/457/414 382/424/382 381/423/381 413/456/413 
f 415/458/415 383/425/383 382/424/382 414/457/414 
f 416/459/416 384/426/384 383/425/383 415/458/415 
f 417/460/417 385/427/385 384/426/384 416/459/416 
f 387/461/387 355/428/355 385/427/385 417/460/417 
f 418/462/418 386/429/386 387/430/387 419/463/419 
f 420/464/420 388/431/388 386/429/386 418/462/418 
f 421/465/421 389/432/389 388/431/388 420/464/420 
f 422/466/422 390/433/390 389/432/389 421/465/421 
f 423/467/423 391/434/391 390/433/390 422/466/422 
f 424/468/424 392/435/392 391/434/391 423/467/423 
f 425/469/425 393/436/393 392/435/392 424/468/424 
f 426/470/426 394/437/394 393/436/393 425/469/425 
f 427/471/427 395/438/395 394/437/394 426/470/426 
f 428/472/428 396/439/396 395/438/395 427/471/427 
f 429/473/429 397/440/397 396/439/396 428/472/428 
f 430/474/430 398/441/398 397/440/397 429/473/429 
f 431/475/431 399/442/399 398/441/398 430/474/430 
f 432/476/432 400/443/400 399/442/399 431/475/431 
f 433/477/433 401/444/401 400/443/400 432/476/432 
f 434/478/434 402/445/402 401/444/401 433/477/433 
f 435/479/435 403/446/403 402/445/402 434/478/434 
f 436/480/436 404/447/404 403/446/403 435/479/435 
f 437/481/437 405/448/405 404/447/404 436/480/436 
f 438/482/438 406/449/406 405/448/405 437/481/437 
f 439/483/439 407/450/407 406/449/406 438/482/438 
f 440/484/440 408/451/408 407/450/407 439/483/439 
f 441/485/441 409/452/409 408/451/408 440/484/440 
f 442/486/442 410/453/410 409/452/409 441/485/441 
f 443/487/443 411/454/411 410/453/410 442/486/442 
f 444/488/444 412/455/412 411/454/411 443/487/443 
f 445/489/445 413/456/413 412/455/412 444/488/444 
f 446/490/446 414/457/414 413/456/413 445/489/445 
f 447/491/447 415/458/415 414/457/414 446/490/446 
f 448/492/448 416/459/416 415/458/415 447/491/447 
f 449/493/449 417/460/417 416/459/416 448/492/448 
f 419/494/419 387/461/387 417/460/417 449/493/449 
f 450/495/450 418/462/418 419/463/419 451/496/451 
f 452/497/452 420/464/420 418/462/418 450/495/450 
f 453/498/453 421/465/421 420/464/420 452/497/452 
f 454/499/454 422/466/422 421/465/421 453/498/453 
f 455/500/455 423/467/423 422/466/422 454/499/454 
f 456/501/456 424/468/424 423/467/423 455/500/455 
f 457/502/457 425/469/425 424/468/424 456/501/456 
f 458/503/458 426/470/426 425/469/425 457/502/457 
f 459/504/459 427/471/427 426/470/426 458/503/458 
f 460/505/460 428/472/428 427/471/427 459/504/459 
f 461/506/461 429/473/429 428/472/428 460/505/460 
f 462/507/462 430/474/430 429/473/429 461/506/461 
f 463/508/463 431/475/431 430/474/430 462/507/462 
f 464/509/464 432/476/432 431/475/431 463/508/463 
f 465/510/465 433/477/433 432/476/432 464/509/464 
f 466/511/466 434/478/434 433/477/433 465/510/465 
f 467/512/467 435/479/435 434/478/434 466/511/466 
f 468/513/468 436/480/436 435/479/435 467/512/467 
f 469/514/469 437/481/437 436/480/436 468/513/468 
f 470/515/470 438/482/438 437/481/437 469/514/469 
f 471/516/471 439/483/439 438/482/438 470/515/470 
f 472/517/472 440/484/440 439/483/439 471/516/471 
f 473/518/473 441/485/441 440/484/440 472/517/472 
f 474/519/474 442/486/442 441/485/441 473/518/473 
f 475/520/475 443/487/443 442/486/442 474/519/474 
f 476/521/476 444/488/444 443/487/443 475/520/475 
f 477/522/477 445/489/445 444/488/444 476/521/476 
f 478/523/478 446/490/446 445/489/445 477/522/477 
f 479/524/479 447/491/447 446/490/446 478/523/478 
f 480/525/480 448/492/448 447/491/447 479/524/479 
f 481/526/481 449/493/449 448/492/448 480/525/480 
f 451/527/451 419/494/419 449/493/449 481/526/481 
f 482/528/482 450/495/450 451/496/451 
f 482/529/482 452/497/452 450/495/450 
f 482/530/482 453/498/453 452/497/452 
f 482/531/482 454/499/454 453/498/453 
f 482/532/482 455/500/455 454/499/454 
f 482/533/482 456/501/456 455/500/455 
f 482/534/482 457/502/457 456/501/456 
f 482/535/482 458/503/458 457/502/457 
f 482/536/482 459/504/459 458/503/458 
f 482/537/482 460/505/460 459/504/459 
f 482/538/482 461/506/461 460/505/460 
f 482/539/482 462/507/462 461/506/461 
f 482/540/482 463/508/463 462/507/462 
f 482/541/482 464/509/464 463/508/463 
f 482/542/482 465/510/465 464/509/464 
f 482/543/482 466/511/466 465/510/465 
f 482/544/482 467/512/467 466/511/466 
f 482/545/482 468/513/468 467/512/467 
f 482/546/482 469/514/469 468/513/468 
f 482/547/482 470/515/470 469/514/469 
f 482/548/482 471/516/471 470/515/470 
f 482/549/482 472/517/472 471/516/471 
f 482/550/482 473/518/473 472/517/472 
f 482/551/482 474/519/474 473/518/473 
f 482/552/482 475/520/475 474/519/474 
f 482/553/482 476/521/476 475/520/475 
f 482/554/482 477/522/477 476/521/476 
f 482/555/482 478/523/478 477/522/477 
f 482/556/482 479/524/479 478/523/478 
f 482/557/482 480/525/480 479/524/479 
f 482/558/482 481/526/481 480/525/480 
f 482/559/482 451/527/451 481/526/481 
# 448 polygons - 64 triangles

